W48: Sentiment analysis of Game of Thrones
…
Putting words in tidy format

It is not enough to simply split the text into separate lines, we want each word in a separate row. To do this we use the unnest_tokens command. In this case the tokens are words.

got_tokens <- got_df %>%
  unnest_tokens(word, text_full)

After splitting the words into separate rows, we are able to count the words, where we can see that the most frequent words in the text are words like: the, and, to. These words dont really say much about the sentiments in the text. So it would be a good idea to exclude them.

got_wc <- got_tokens %>% 
  count(word) %>% 
  arrange(-n)
got_wc

## # A tibble: 11,826 x 2
##    word      n
##    <chr> <int>
##  1 the   17988
##  2 and    8997
##  3 to     6640
##  4 a      6461
##  5 of     6200
##  6 he     5166
##  7 his    5161
##  8 was    3904
##  9 her    3659
## 10 you    3267
## # ... with 11,816 more rows
…
got_stop <- got_tokens %>% 
  anti_join(stop_words) %>% 
  select(-got_text)

## Joining, by = "word"

We can now count the words in the text without all the filler words

got_swc <- got_stop %>% 
  count(word) %>% 
  arrange(-n)
got_swc

## # A tibble: 11,295 x 2
##    word       n
##    <chr>  <int>
##  1 lord    1341
##  2 ser     1023
##  3 jon      787
##  4 ned      743
##  5 tyrion   591
##  6 eyes     567
##  7 hand     567
##  8 king     542
##  9 father   512
## 10 told     504
## # ... with 11,285 more rows
…
Sentiment analysis with AFINN

One way of doing sentiment analysis is using the AFINN lexicon, which ranks words on a scale from -5 to 5 (5 being the most positive words).

get_sentiments(lexicon = "afinn")

## # A tibble: 2,477 x 2
##    word       value
##    <chr>      <dbl>
##  1 abandon       -2
##  2 abandoned     -2
##  3 abandons      -2
##  4 abducted      -2
##  5 abduction     -2
##  6 abductions    -2
##  7 abhor         -3
##  8 abhorred      -3
##  9 abhorrent     -3
## 10 abhors        -3
## # ... with 2,467 more rows
…
